Windows/Example/axi2apb/testbench/TP_002_tb.vcd
$date
	Mon Oct 05 10:55:39 2020
$end
$version
	Icarus Verilog
$end
$timescale
	1ps
$end
$scope module axi2apb_tb $end
$var wire 1 ! ARREADY $end
$var wire 1 " AWREADY $end
$var wire 2 # BRESP [1:0] $end
$var wire 1 $ BVALID $end
$var wire 32 % RDATA [31:0] $end
$var wire 2 & RRESP [1:0] $end
$var wire 1 ' RVALID $end
$var wire 1 ( WREADY $end
$var wire 16 ) paddr [15:0] $end
$var wire 1 * penable $end
$var wire 1 + psel $end
$var wire 32 , pwdata [31:0] $end
$var wire 1 - pwrite $end
$var reg 1 . ACLK $end
$var reg 32 / ARADDR [31:0] $end
$var reg 1 0 ARESETn $end
$var reg 3 1 ARPROT [2:0] $end
$var reg 1 2 ARVALID $end
$var reg 32 3 AWADDR [31:0] $end
$var reg 3 4 AWPROT [2:0] $end
$var reg 1 5 AWVALID $end
$var reg 1 6 BREADY $end
$var reg 1 7 RREADY $end
$var reg 32 8 WDATA [31:0] $end
$var reg 1 9 WVALID $end
$var reg 1 : pclk $end
$var reg 32 ; prdata [31:0] $end
$var reg 1 < pready $end
$var reg 1 = prst_n $end
$var reg 1 > pslverr $end
$scope module tb $end
$var wire 1 ? ACLK $end
$var wire 3 @ APB_next_state [2:0] $end
$var wire 3 A APB_present_state [2:0] $end
$var wire 32 B ARADDR [31:0] $end
$var wire 1 C ARESETn $end
$var wire 3 D ARPROT [2:0] $end
$var wire 1 ! ARREADY $end
$var wire 1 E ARVALID $end
$var wire 32 F AWADDR [31:0] $end
$var wire 3 G AWPROT [2:0] $end
$var wire 1 " AWREADY $end
$var wire 1 H AWVALID $end
$var wire 3 I AXI_next_state [2:0] $end
$var wire 3 J AXI_present_state [2:0] $end
$var wire 1 K BREADY $end
$var wire 2 L BRESP [1:0] $end
$var wire 1 $ BVALID $end
$var wire 16 M PADDR [15:0] $end
$var wire 1 N PCLK $end
$var wire 1 * PENABLE $end
$var wire 32 O PRDATA [31:0] $end
$var wire 1 P PREADY $end
$var wire 1 Q PRST_n $end
$var wire 1 + PSEL $end
$var wire 1 R PSLVERR $end
$var wire 32 S PWDATA [31:0] $end
$var wire 1 - PWRITE $end
$var wire 32 T RDATA [31:0] $end
$var wire 1 U RREADY $end
$var wire 2 V RRESP [1:0] $end
$var wire 1 ' RVALID $end
$var wire 1 W SLVERR_sign $end
$var wire 32 X WDATA [31:0] $end
$var wire 1 ( WREADY $end
$var wire 1 Y WVALID $end
$var wire 1 Z avalidend $end
$var wire 1 [ dvalidend $end
$var wire 1 \ tout $end
$var wire 1 ] x_valid $end
$scope module stm $end
$var wire 1 ? ACLK $end
$var wire 1 C ARESETn $end
$var wire 1 E ARVALID $end
$var wire 1 H AWVALID $end
$var wire 1 P PREADY $end
$var wire 1 + PSEL $end
$var wire 1 R PSLVERR $end
$var wire 1 W SLVERR_sign $end
$var wire 1 Y WVALID $end
$var wire 1 Z avalidend $end
$var wire 1 [ dvalidend $end
$var wire 1 ^ flag_cmp $end
$var reg 3 _ APB_next_state [2:0] $end
$var reg 3 ` APB_present_state [2:0] $end
$var reg 3 a AXI_next_state [2:0] $end
$var reg 3 b AXI_present_state [2:0] $end
$var reg 5 c cnt [4:0] $end
$var reg 1 d tout $end
$upscope $end
$scope module status $end
$var wire 1 ? ACLK $end
$var wire 3 e APB_next_state [2:0] $end
$var wire 32 f ARADDR [31:0] $end
$var wire 1 C ARESETn $end
$var wire 1 E ARVALID $end
$var wire 16 g AR_LSB [15:0] $end
$var wire 32 h AWADDR [31:0] $end
$var wire 1 H AWVALID $end
$var wire 16 i AW_LSB [15:0] $end
$var wire 3 j AXI_next_state [2:0] $end
$var wire 32 k PRDATA [31:0] $end
$var wire 1 P PREADY $end
$var wire 1 R PSLVERR $end
$var wire 1 W SLVERR_sign $end
$var wire 32 l WDATA [31:0] $end
$var wire 1 Y WVALID $end
$var wire 1 \ tout $end
$var reg 1 m ARREADY $end
$var reg 1 n AWREADY $end
$var reg 2 o BRESP [1:0] $end
$var reg 1 p BVALID $end
$var reg 16 q PADDR [15:0] $end
$var reg 1 r PENABLE $end
$var reg 1 s PSEL $end
$var reg 32 t PWDATA [31:0] $end
$var reg 1 u PWRITE $end
$var reg 32 v RDATA [31:0] $end
$var reg 2 w RRESP [1:0] $end
$var reg 1 x RVALID $end
$var reg 1 y WREADY $end
$var reg 1 z avalidend $end
$var reg 1 { dvalidend $end
$var reg 16 | w_addr [15:0] $end
$var reg 32 } w_data [31:0] $end
$var reg 1 ~ x_valid $end
$upscope $end
$scope module decoder $end
$var wire 1 ? ACLK $end
$var wire 32 !" ARADDR [31:0] $end
$var wire 1 C ARESETn $end
$var wire 16 "" AR_MSB [15:0] $end
$var wire 32 #" AWADDR [31:0] $end
$var wire 16 $" AW_MSB [15:0] $end
$var wire 1 W SLVERR_sign $end
$var wire 4 %" psel_result [3:0] $end
$var wire 1 &" pselx $end
$var wire 1 ] x_valid $end
$var reg 1 '" sign $end
$scope function psel_select $end
$var reg 16 (" address [15:0] $end
$var reg 4 )" psel_select [3:0] $end
$upscope $end
$upscope $end
$upscope $end
$scope task MIX_TRANSFER $end
$var reg 32 *" pr_data [31:0] $end
$var reg 32 +" read_addr [31:0] $end
$var reg 32 ," write_addr [31:0] $end
$var reg 32 -" write_data [31:0] $end
$upscope $end
$scope task READ_DATA $end
$var reg 32 ." pr_data [31:0] $end
$var reg 32 /" read_addr [31:0] $end
$upscope $end
$scope task READ_DATA_FAIL $end
$var reg 32 0" read_addr_slverr [31:0] $end
$var reg 32 1" read_addr_tout [31:0] $end
$upscope $end
$scope task READ_WAIT_TRANSFER $end
$var reg 32 2" pr_data [31:0] $end
$var reg 32 3" read_addr [31:0] $end
$upscope $end
$scope task WRITE_DATA $end
$var reg 32 4" write_addr [31:0] $end
$var reg 32 5" write_data [31:0] $end
$upscope $end
$scope task WRITE_DATA_FAIL $end
$var reg 32 6" write_addr_slverr [31:0] $end
$var reg 32 7" write_addr_tout [31:0] $end
$var reg 32 8" write_data_tout [31:0] $end
$upscope $end
$scope task WRITE_WAIT_TRANSFER $end
$var reg 32 9" write_addr [31:0] $end
$var reg 32 :" write_data [31:0] $end
$upscope $end
$upscope $end
$enddefinitions $end
#0
$dumpvars
bx :"
bx 9"
bx 8"
bx 7"
bx 6"
bx 5"
bx 4"
bx 3"
bx 2"
bx 1"
bx 0"
bx /"
bx ."
bx -"
bx ,"
bx +"
bx *"
b0 )"
b0 ("
0'"
0&"
b0 %"
b0 $"
b0 #"
b0 ""
b0 !"
x~
bx }
bx |
x{
xz
xy
xx
bx w
bx v
xu
bx t
xs
xr
bx q
xp
bx o
xn
xm
b0 l
b0 k
b1 j
b0 i
b0 h
b0 g
b0 f
b1 e
xd
bx c
bx b
b1 a
bx `
b1 _
x^
x]
x\
x[
xZ
0Y
b0 X
0W
bx V
0U
bx T
bx S
0R
0Q
0P
b0 O
0N
bx M
bx L
0K
bx J
b1 I
0H
b0 G
b0 F
0E
b0 D
0C
b0 B
bx A
b1 @
0?
0>
0=
0<
b0 ;
0:
09
b0 8
07
06
05
b0 4
b0 3
02
b0 1
00
b0 /
0.
x-
bx ,
x+
x*
bx )
x(
x'
bx &
bx %
x$
bx #
x"
x!
$end
#1000
0^
b0 c
0d
0\
b1 `
b1 A
b1 b
b1 J
0~
0]
b0 |
b0 }
0{
0[
0z
0Z
b0 v
b0 %
b0 T
0x
0'
0m
0!
0p
0$
0y
0(
0n
0"
b0 q
b0 )
b0 M
b0 t
b0 ,
b0 S
0u
0-
0r
0*
0s
0+
b0 o
b0 #
b0 L
b0 w
b0 &
b0 V
#50000
1.
1?
#100000
0.
0?
#150000
1.
1?
10
1C
#151000
0W
b10 %"
0&"
b10 )"
b1010000000000001 ("
b1000000010100 i
b1010000000000001 $"
b101 a
b101 I
b101 j
b100 _
b100 @
b100 e
b1001001001000 8
b1001001001000 X
b1001001001000 l
19
1Y
b10100000000000010001000000010100 3
b10100000000000010001000000010100 F
b10100000000000010001000000010100 h
b10100000000000010001000000010100 #"
15
1H
b1001001001000 :"
b10100000000000010001000000010100 9"
#200000
0.
0?
#250000
1.
1?
#251000
b101 _
b101 @
b101 e
b110 a
b110 I
b110 j
1u
1-
1s
1+
b1001001001000 }
1{
1[
1y
1(
b1000000010100 |
1z
1Z
1n
1"
b100 `
b100 A
b101 b
b101 J
b1001001001000 t
b1001001001000 ,
b1001001001000 S
b1000000010100 q
b1000000010100 )
b1000000010100 M
#300000
0.
0?
#350000
1.
1?
#351000
b1 c
b101 `
b101 A
b110 b
b110 J
0y
0(
0n
0"
1r
1*
b0 %"
b0 )"
b0 ("
b0 i
b0 $"
b110 a
b110 I
b110 j
b101 _
b101 @
b101 e
16
1K
b0 8
b0 X
b0 l
09
0Y
b0 3
b0 F
b0 h
b0 #"
05
0H
#400000
0.
0?
#450000
1.
1?
#451000
b10 c
#500000
0.
0?
#550000
1.
1?
#551000
b11 c
#600000
0.
0?
#650000
1.
1?
#651000
b100 c
#700000
0.
0?
#750000
1.
1?
#751000
b101 c
#800000
0.
0?
#850000
1.
1?
#851000
b110 c
b111 a
b111 I
b111 j
b1 _
b1 @
b1 e
1<
1P
#900000
0.
0?
#950000
1.
1?
#951000
b0 c
b1 `
b1 A
b111 b
b111 J
1~
1]
1p
1$
b0 q
b0 )
b0 M
b0 t
b0 ,
b0 S
0r
0*
0s
0+
b1 a
b1 I
b1 j
b1 _
b1 @
b1 e
0<
0P
#1000000
0.
0?
#1050000
1.
1?
#1051000
0~
0]
b0 |
b0 }
0{
0[
0z
0Z
0p
0$
b1 b
b1 J
06
0K
#1100000
0.
0?
#1150000
1.
1?
#1151000
0W
b10 %"
0&"
b10 )"
b1010000000000001 ("
b1000000011000 g
b1010000000000001 ""
b10 a
b10 I
b10 j
b10 _
b10 @
b10 e
b10100000000000010001000000011000 /
b10100000000000010001000000011000 B
b10100000000000010001000000011000 f
b10100000000000010001000000011000 !"
12
1E
b10110000000000010001000000000000 0"
b10100000000000010001000000011000 1"
#1200000
0.
0?
#1250000
1.
1?
#1251000
b11 _
b11 @
b11 e
b11 a
b11 I
b11 j
0u
0-
1s
1+
1m
1!
b10 `
b10 A
b10 b
b10 J
b1000000011000 q
b1000000011000 )
b1000000011000 M
#1300000
0.
0?
#1350000
1.
1?
#1351000
b1 c
b11 `
b11 A
b11 b
b11 J
0m
0!
1r
1*
b0 %"
b0 )"
b0 ("
b0 g
b0 ""
b11 a
b11 I
b11 j
b11 _
b11 @
b11 e
17
1U
b0 /
b0 B
b0 f
b0 !"
02
0E
#1400000
0.
0?
#1450000
1.
1?
#1451000
b10 c
#1500000
0.
0?
#1550000
1.
1?
#1551000
b11 c
#1600000
0.
0?
#1650000
1.
1?
#1651000
b100 c
#1700000
0.
0?
#1750000
1.
1?
#1751000
b101 c
#1800000
0.
0?
#1850000
1.
1?
#1851000
b110 c
#1900000
0.
0?
#1950000
1.
1?
#1951000
b111 c
#2000000
0.
0?
#2050000
1.
1?
#2051000
b1000 c
#2100000
0.
0?
#2150000
1.
1?
#2151000
1^
b1001 c
#2200000
0.
0?
#2250000
1.
1?
#2251000
b100 a
b100 I
b100 j
b1 _
b1 @
b1 e
0^
1d
1\
b0 c
#2300000
0.
0?
#2350000
1.
1?
#2351000
b1 a
b1 I
b1 j
b1 c
0d
0\
b1 `
b1 A
b100 b
b100 J
1~
1]
1x
1'
b0 q
b0 )
b0 M
0r
0*
0s
0+
b10 w
b10 &
b10 V
#2400000
0.
0?
#2450000
1.
1?
#2451000
b0 w
b0 &
b0 V
0~
0]
0x
0'
b1 b
b1 J
#2500000
0.
0?
#2550000
1.
1?
#2600000
0.
0?
#2650000
1.
1?
#2700000
0.
0?
#2750000
1.
1?
#2800000
0.
0?
#2850000
1.
1?
#2851000
07
0U
#2900000
0.
0?
#2950000
1.
1?
#2951000
1W
1&"
b1011000000000001 ("
b1000000000000 g
b1011000000000001 ""
b10 a
b10 I
b10 j
b1 _
b1 @
b1 e
b10110000000000010001000000000000 /
b10110000000000010001000000000000 B
b10110000000000010001000000000000 f
b10110000000000010001000000000000 !"
12
1E
#3000000
0.
0?
#3050000
1'"
1.
1?
#3051000
b100 a
b100 I
b100 j
1m
1!
b10 b
b10 J
#3100000
0.
0?
#3150000
1.
1?
#3151000
b100 b
b100 J
1~
1]
1x
1'
0m
0!
b10 w
b10 &
b10 V
0&"
b0 ("
b0 g
b0 ""
b1 a
b1 I
b1 j
b0 /
b0 B
b0 f
b0 !"
02
0E
#3200000
0.
0?
#3250000
0W
0'"
1.
1?
#3251000
b101 a
b101 I
b101 j
b0 w
b0 &
b0 V
0~
0]
0x
0'
b1 b
b1 J
0W
b10 %"
0&"
b10 )"
b1010000000000001 ("
b1000000011100 i
b1010000000000001 $"
b100 _
b100 @
b100 e
b1001001001100 8
b1001001001100 X
b1001001001100 l
19
1Y
b10100000000000010001000000011100 3
b10100000000000010001000000011100 F
b10100000000000010001000000011100 h
b10100000000000010001000000011100 #"
15
1H
b11000000000000010001000000000000 6"
b1001001001100 8"
b10100000000000010001000000011100 7"
#3300000
0.
0?
#3350000
1.
1?
#3351000
b110 a
b110 I
b110 j
b101 _
b101 @
b101 e
b100 `
b100 A
b101 b
b101 J
b1001001001100 }
1{
1[
1y
1(
b1000000011100 |
1z
1Z
1n
1"
1u
1-
1s
1+
b1001001001100 t
b1001001001100 ,
b1001001001100 S
b1000000011100 q
b1000000011100 )
b1000000011100 M
#3400000
0.
0?
#3450000
1.
1?
#3451000
1r
1*
0y
0(
0n
0"
b101 `
b101 A
b110 b
b110 J
b10 c
b0 %"
b0 )"
b0 ("
b0 i
b0 $"
b110 a
b110 I
b110 j
b101 _
b101 @
b101 e
16
1K
b0 8
b0 X
b0 l
09
0Y
b0 3
b0 F
b0 h
b0 #"
05
0H
#3500000
0.
0?
#3550000
1.
1?
#3551000
b11 c
#3600000
0.
0?
#3650000
1.
1?
#3651000
b100 c
#3700000
0.
0?
#3750000
1.
1?
#3751000
b101 c
#3800000
0.
0?
#3850000
1.
1?
#3851000
b110 c
#3900000
0.
0?
#3950000
1.
1?
#3951000
b111 c
#4000000
0.
0?
#4050000
1.
1?
#4051000
b1000 c
#4100000
0.
0?
#4150000
1.
1?
#4151000
1^
b1001 c
#4200000
0.
0?
#4250000
1.
1?
#4251000
b111 a
b111 I
b111 j
b1 _
b1 @
b1 e
0^
1d
1\
b0 c
#4300000
0.
0?
#4350000
1.
1?
#4351000
b1 a
b1 I
b1 j
b1 c
0d
0\
b1 `
b1 A
b111 b
b111 J
1~
1]
1p
1$
b0 q
b0 )
b0 M
b0 t
b0 ,
b0 S
0r
0*
0s
0+
b10 o
b10 #
b10 L
#4400000
0.
0?
#4450000
1.
1?
#4451000
b0 o
b0 #
b0 L
0~
0]
b0 |
b0 }
0{
0[
0z
0Z
0p
0$
b1 b
b1 J
#4500000
0.
0?
#4550000
1.
1?
#4600000
0.
0?
#4650000
1.
1?
#4700000
0.
0?
#4750000
1.
1?
#4800000
0.
0?
#4850000
1.
1?
#4900000
0.
0?
#4950000
1.
1?
#4951000
06
0K
#5000000
0.
0?
#5050000
1.
1?
#5051000
1W
1&"
b1100000000000001 ("
b1000000000000 i
b1100000000000001 $"
b101 a
b101 I
b101 j
b11000000000000010001000000000000 3
b11000000000000010001000000000000 F
b11000000000000010001000000000000 h
b11000000000000010001000000000000 #"
15
1H
#5100000
0.
0?
#5150000
1'"
1.
1?
#5151000
b111 a
b111 I
b111 j
b101 b
b101 J
b1000000000000 |
1z
1Z
1n
1"
b10 o
b10 #
b10 L
#5200000
0.
0?
#5250000
1.
1?
#5251000
1~
1]
1p
1$
0n
0"
b111 b
b111 J
0&"
b0 ("
b0 i
b0 $"
b1 a
b1 I
b1 j
b0 3
b0 F
b0 h
b0 #"
05
0H
#5300000
0.
0?
#5350000
0W
0'"
1.
1?
#5351000
b10 a
b10 I
b10 j
b1 b
b1 J
0~
0]
b0 |
0z
0Z
0p
0$
b0 o
b0 #
b0 L
1W
1&"
b1010000000000010 ("
b1000000000000 g
b1010000000000010 ""
b1 _
b1 @
b1 e
b10100000000000100001000000000000 /
b10100000000000100001000000000000 B
b10100000000000100001000000000000 f
b10100000000000100001000000000000 !"
12
1E
b1001010000000 ."
b10100000000000100001000000000000 /"
#5400000
0.
0?
#5450000
1'"
1.
1?
#5451000
b100 a
b100 I
b100 j
1m
1!
b10 b
b10 J
#5500000
0.
0?
#5550000
1.
1?
#5551000
b100 b
b100 J
1~
1]
1x
1'
0m
0!
b10 w
b10 &
b10 V
0&"
b0 ("
b0 g
b0 ""
b1 a
b1 I
b1 j
b1001010000000 ;
b1001010000000 O
b1001010000000 k
1<
1P
17
1U
b0 /
b0 B
b0 f
b0 !"
02
0E
#5600000
0.
0?
#5650000
0W
0'"
1.
1?
#5651000
b0 w
b0 &
b0 V
0~
0]
0x
0'
b1 b
b1 J
b0 c
b0 ;
b0 O
b0 k
0<
0P
#5700000
0.
0?
#5750000
1.
1?
#5751000
07
0U
#5800000
0.
0?
#5850000
1.
1?
#5851000
1W
1&"
b1100000000000010 ("
b1000000000100 i
b1100000000000010 $"
b101 a
b101 I
b101 j
b1 _
b1 @
b1 e
b11000000000000100001000000000100 3
b11000000000000100001000000000100 F
b11000000000000100001000000000100 h
b11000000000000100001000000000100 #"
15
1H
b1001010000100 8
b1001010000100 X
b1001010000100 l
19
1Y
b1001010000100 5"
b11000000000000100001000000000100 4"
#5900000
0.
0?
#5950000
1'"
1.
1?
#5951000
b111 a
b111 I
b111 j
b101 b
b101 J
b1001010000100 }
1{
1[
1y
1(
b1000000000100 |
1z
1Z
1n
1"
b10 o
b10 #
b10 L
#6000000
0.
0?
#6050000
1.
1?
#6051000
1~
1]
1p
1$
0y
0(
0n
0"
b111 b
b111 J
0&"
b0 ("
b0 i
b0 $"
b1 a
b1 I
b1 j
1<
1P
16
1K
b0 8
b0 X
b0 l
09
0Y
b0 3
b0 F
b0 h
b0 #"
05
0H
#6100000
0.
0?
#6150000
0W
0'"
1.
1?
#6151000
b1 b
b1 J
0~
0]
b0 |
b0 }
0{
0[
0z
0Z
0p
0$
b0 o
b0 #
b0 L
0<
0P
#6200000
0.
0?
#6250000
1.
1?
#6251000
06
0K
#6300000
0.
0?
#6350000
1.
1?
#6400000
0.
0?
#6450000
1.
1?
#6500000
0.
0?
#6550000
1.
1?
#6600000
0.
0?
#6650000
1.
1?
#6700000
0.
0?
#6750000
1.
1?
#6800000
0.
0?
#6850000
1.
1?
#6851000
00
0C
#6852000
0u
0-
