Windows/Example/axi2apb/testbench/TP_001_tb.vcd
$date
	Mon Oct 05 10:55:38 2020
$end
$version
	Icarus Verilog
$end
$timescale
	1ps
$end
$scope module axi2apb_tb $end
$var wire 1 ! ARREADY $end
$var wire 1 " AWREADY $end
$var wire 2 # BRESP [1:0] $end
$var wire 1 $ BVALID $end
$var wire 32 % RDATA [31:0] $end
$var wire 2 & RRESP [1:0] $end
$var wire 1 ' RVALID $end
$var wire 1 ( WREADY $end
$var wire 16 ) paddr [15:0] $end
$var wire 1 * penable $end
$var wire 1 + psel $end
$var wire 32 , pwdata [31:0] $end
$var wire 1 - pwrite $end
$var reg 1 . ACLK $end
$var reg 32 / ARADDR [31:0] $end
$var reg 1 0 ARESETn $end
$var reg 3 1 ARPROT [2:0] $end
$var reg 1 2 ARVALID $end
$var reg 32 3 AWADDR [31:0] $end
$var reg 3 4 AWPROT [2:0] $end
$var reg 1 5 AWVALID $end
$var reg 1 6 BREADY $end
$var reg 1 7 RREADY $end
$var reg 32 8 WDATA [31:0] $end
$var reg 1 9 WVALID $end
$var reg 1 : pclk $end
$var reg 32 ; prdata [31:0] $end
$var reg 1 < pready $end
$var reg 1 = prst_n $end
$var reg 1 > pslverr $end
$scope module tb $end
$var wire 1 ? ACLK $end
$var wire 3 @ APB_next_state [2:0] $end
$var wire 3 A APB_present_state [2:0] $end
$var wire 32 B ARADDR [31:0] $end
$var wire 1 C ARESETn $end
$var wire 3 D ARPROT [2:0] $end
$var wire 1 ! ARREADY $end
$var wire 1 E ARVALID $end
$var wire 32 F AWADDR [31:0] $end
$var wire 3 G AWPROT [2:0] $end
$var wire 1 " AWREADY $end
$var wire 1 H AWVALID $end
$var wire 3 I AXI_next_state [2:0] $end
$var wire 3 J AXI_present_state [2:0] $end
$var wire 1 K BREADY $end
$var wire 2 L BRESP [1:0] $end
$var wire 1 $ BVALID $end
$var wire 16 M PADDR [15:0] $end
$var wire 1 N PCLK $end
$var wire 1 * PENABLE $end
$var wire 32 O PRDATA [31:0] $end
$var wire 1 P PREADY $end
$var wire 1 Q PRST_n $end
$var wire 1 + PSEL $end
$var wire 1 R PSLVERR $end
$var wire 32 S PWDATA [31:0] $end
$var wire 1 - PWRITE $end
$var wire 32 T RDATA [31:0] $end
$var wire 1 U RREADY $end
$var wire 2 V RRESP [1:0] $end
$var wire 1 ' RVALID $end
$var wire 1 W SLVERR_sign $end
$var wire 32 X WDATA [31:0] $end
$var wire 1 ( WREADY $end
$var wire 1 Y WVALID $end
$var wire 1 Z avalidend $end
$var wire 1 [ dvalidend $end
$var wire 1 \ tout $end
$var wire 1 ] x_valid $end
$scope module stm $end
$var wire 1 ? ACLK $end
$var wire 1 C ARESETn $end
$var wire 1 E ARVALID $end
$var wire 1 H AWVALID $end
$var wire 1 P PREADY $end
$var wire 1 + PSEL $end
$var wire 1 R PSLVERR $end
$var wire 1 W SLVERR_sign $end
$var wire 1 Y WVALID $end
$var wire 1 Z avalidend $end
$var wire 1 [ dvalidend $end
$var wire 1 ^ flag_cmp $end
$var reg 3 _ APB_next_state [2:0] $end
$var reg 3 ` APB_present_state [2:0] $end
$var reg 3 a AXI_next_state [2:0] $end
$var reg 3 b AXI_present_state [2:0] $end
$var reg 5 c cnt [4:0] $end
$var reg 1 d tout $end
$upscope $end
$scope module status $end
$var wire 1 ? ACLK $end
$var wire 3 e APB_next_state [2:0] $end
$var wire 32 f ARADDR [31:0] $end
$var wire 1 C ARESETn $end
$var wire 1 E ARVALID $end
$var wire 16 g AR_LSB [15:0] $end
$var wire 32 h AWADDR [31:0] $end
$var wire 1 H AWVALID $end
$var wire 16 i AW_LSB [15:0] $end
$var wire 3 j AXI_next_state [2:0] $end
$var wire 32 k PRDATA [31:0] $end
$var wire 1 P PREADY $end
$var wire 1 R PSLVERR $end
$var wire 1 W SLVERR_sign $end
$var wire 32 l WDATA [31:0] $end
$var wire 1 Y WVALID $end
$var wire 1 \ tout $end
$var reg 1 m ARREADY $end
$var reg 1 n AWREADY $end
$var reg 2 o BRESP [1:0] $end
$var reg 1 p BVALID $end
$var reg 16 q PADDR [15:0] $end
$var reg 1 r PENABLE $end
$var reg 1 s PSEL $end
$var reg 32 t PWDATA [31:0] $end
$var reg 1 u PWRITE $end
$var reg 32 v RDATA [31:0] $end
$var reg 2 w RRESP [1:0] $end
$var reg 1 x RVALID $end
$var reg 1 y WREADY $end
$var reg 1 z avalidend $end
$var reg 1 { dvalidend $end
$var reg 16 | w_addr [15:0] $end
$var reg 32 } w_data [31:0] $end
$var reg 1 ~ x_valid $end
$upscope $end
$scope module decoder $end
$var wire 1 ? ACLK $end
$var wire 32 !" ARADDR [31:0] $end
$var wire 1 C ARESETn $end
$var wire 16 "" AR_MSB [15:0] $end
$var wire 32 #" AWADDR [31:0] $end
$var wire 16 $" AW_MSB [15:0] $end
$var wire 1 W SLVERR_sign $end
$var wire 4 %" psel_result [3:0] $end
$var wire 1 &" pselx $end
$var wire 1 ] x_valid $end
$var reg 1 '" sign $end
$scope function psel_select $end
$var reg 16 (" address [15:0] $end
$var reg 4 )" psel_select [3:0] $end
$upscope $end
$upscope $end
$upscope $end
$scope task MIX_TRANSFER $end
$var reg 32 *" pr_data [31:0] $end
$var reg 32 +" read_addr [31:0] $end
$var reg 32 ," write_addr [31:0] $end
$var reg 32 -" write_data [31:0] $end
$upscope $end
$scope task READ_DATA $end
$var reg 32 ." pr_data [31:0] $end
$var reg 32 /" read_addr [31:0] $end
$upscope $end
$scope task READ_DATA_FAIL $end
$var reg 32 0" read_addr_slverr [31:0] $end
$var reg 32 1" read_addr_tout [31:0] $end
$upscope $end
$scope task READ_WAIT_TRANSFER $end
$var reg 32 2" pr_data [31:0] $end
$var reg 32 3" read_addr [31:0] $end
$upscope $end
$scope task WRITE_DATA $end
$var reg 32 4" write_addr [31:0] $end
$var reg 32 5" write_data [31:0] $end
$upscope $end
$scope task WRITE_DATA_FAIL $end
$var reg 32 6" write_addr_slverr [31:0] $end
$var reg 32 7" write_addr_tout [31:0] $end
$var reg 32 8" write_data_tout [31:0] $end
$upscope $end
$scope task WRITE_WAIT_TRANSFER $end
$var reg 32 9" write_addr [31:0] $end
$var reg 32 :" write_data [31:0] $end
$upscope $end
$upscope $end
$enddefinitions $end
#0
$dumpvars
bx :"
bx 9"
bx 8"
bx 7"
bx 6"
bx 5"
bx 4"
bx 3"
bx 2"
bx 1"
bx 0"
bx /"
bx ."
bx -"
bx ,"
bx +"
bx *"
b0 )"
b0 ("
0'"
0&"
b0 %"
b0 $"
b0 #"
b0 ""
b0 !"
x~
bx }
bx |
x{
xz
xy
xx
bx w
bx v
xu
bx t
xs
xr
bx q
xp
bx o
xn
xm
b0 l
b0 k
b1 j
b0 i
b0 h
b0 g
b0 f
b1 e
xd
bx c
bx b
b1 a
bx `
b1 _
x^
x]
x\
x[
xZ
0Y
b0 X
0W
bx V
0U
bx T
bx S
0R
0Q
0P
b0 O
0N
bx M
bx L
0K
bx J
b1 I
0H
b0 G
b0 F
0E
b0 D
0C
b0 B
bx A
b1 @
0?
0>
0=
0<
b0 ;
0:
09
b0 8
07
06
05
b0 4
b0 3
02
b0 1
00
b0 /
0.
x-
bx ,
x+
x*
bx )
x(
x'
bx &
bx %
x$
bx #
x"
x!
$end
#1000
0^
b0 c
0d
0\
b1 `
b1 A
b1 b
b1 J
0~
0]
b0 |
b0 }
0{
0[
0z
0Z
b0 v
b0 %
b0 T
0x
0'
0m
0!
0p
0$
0y
0(
0n
0"
b0 q
b0 )
b0 M
b0 t
b0 ,
b0 S
0u
0-
0r
0*
0s
0+
b0 o
b0 #
b0 L
b0 w
b0 &
b0 V
#50000
1.
1?
#100000
0.
0?
#150000
1.
1?
10
1C
#151000
0W
b10 %"
0&"
b10 )"
b1010000000000001 ("
b1000000000000 g
b1010000000000001 ""
b10 a
b10 I
b10 j
b10 _
b10 @
b10 e
b10100000000000010001000000000000 /
b10100000000000010001000000000000 B
b10100000000000010001000000000000 f
b10100000000000010001000000000000 !"
12
1E
b1001000111010 ."
b10100000000000010001000000000000 /"
#200000
0.
0?
#250000
1.
1?
#251000
b11 _
b11 @
b11 e
b11 a
b11 I
b11 j
1s
1+
1m
1!
b10 `
b10 A
b10 b
b10 J
b1000000000000 q
b1000000000000 )
b1000000000000 M
#300000
0.
0?
#350000
1.
1?
#351000
b1 c
b11 `
b11 A
b11 b
b11 J
0m
0!
1r
1*
b0 %"
b0 )"
b0 ("
b0 g
b0 ""
b100 a
b100 I
b100 j
b1 _
b1 @
b1 e
b1001000111010 ;
b1001000111010 O
b1001000111010 k
1<
1P
17
1U
b0 /
b0 B
b0 f
b0 !"
02
0E
#400000
0.
0?
#450000
1.
1?
#451000
b0 q
b0 )
b0 M
0r
0*
0s
0+
1~
1]
1x
1'
b1 `
b1 A
b100 b
b100 J
b0 c
b1001000111010 v
b1001000111010 %
b1001000111010 T
b1 a
b1 I
b1 j
b1 _
b1 @
b1 e
b0 ;
b0 O
b0 k
0<
0P
#500000
0.
0?
#550000
1.
1?
#551000
b10 a
b10 I
b10 j
b1 b
b1 J
0~
0]
b0 v
b0 %
b0 T
0x
0'
0W
b10 %"
0&"
b10 )"
b1010000000000001 ("
b1000000000000 g
b1010000000000001 ""
b10 _
b10 @
b10 e
b10100000000000010001000000000000 /
b10100000000000010001000000000000 B
b10100000000000010001000000000000 f
b10100000000000010001000000000000 !"
12
1E
07
0U
#600000
0.
0?
#650000
1.
1?
#651000
b11 _
b11 @
b11 e
b11 a
b11 I
b11 j
1s
1+
1m
1!
b10 `
b10 A
b10 b
b10 J
b1000000000000 q
b1000000000000 )
b1000000000000 M
#700000
0.
0?
#750000
1.
1?
#751000
b1 c
b11 `
b11 A
b11 b
b11 J
0m
0!
1r
1*
b0 %"
b0 )"
b0 ("
b0 g
b0 ""
b100 a
b100 I
b100 j
b1 _
b1 @
b1 e
b1001000111010 ;
b1001000111010 O
b1001000111010 k
1<
1P
17
1U
b0 /
b0 B
b0 f
b0 !"
02
0E
#800000
0.
0?
#850000
1.
1?
#851000
b0 q
b0 )
b0 M
0r
0*
0s
0+
1~
1]
1x
1'
b1 `
b1 A
b100 b
b100 J
b0 c
b1001000111010 v
b1001000111010 %
b1001000111010 T
b1 a
b1 I
b1 j
b1 _
b1 @
b1 e
b0 ;
b0 O
b0 k
0<
0P
#900000
0.
0?
#950000
1.
1?
#951000
b1 b
b1 J
0~
0]
b0 v
b0 %
b0 T
0x
0'
07
0U
#1000000
0.
0?
#1050000
1.
1?
#1051000
0W
b10 %"
0&"
b10 )"
b1010000000000001 ("
b1000000000100 i
b1010000000000001 $"
b101 a
b101 I
b101 j
b100 _
b100 @
b100 e
b10100000000000010001000000000100 3
b10100000000000010001000000000100 F
b10100000000000010001000000000100 h
b10100000000000010001000000000100 #"
15
1H
b1001000111011 8
b1001000111011 X
b1001000111011 l
19
1Y
b1001000111011 5"
b10100000000000010001000000000100 4"
#1100000
0.
0?
#1150000
1.
1?
#1151000
b110 a
b110 I
b110 j
b101 _
b101 @
b101 e
b100 `
b100 A
b101 b
b101 J
b1001000111011 }
1{
1[
1y
1(
b1000000000100 |
1z
1Z
1n
1"
1u
1-
1s
1+
b1001000111011 t
b1001000111011 ,
b1001000111011 S
b1000000000100 q
b1000000000100 )
b1000000000100 M
#1200000
0.
0?
#1250000
1.
1?
#1251000
1r
1*
0y
0(
0n
0"
b101 `
b101 A
b110 b
b110 J
b1 c
b0 %"
b0 )"
b0 ("
b0 i
b0 $"
b111 a
b111 I
b111 j
b1 _
b1 @
b1 e
1<
1P
16
1K
b0 8
b0 X
b0 l
09
0Y
b0 3
b0 F
b0 h
b0 #"
05
0H
#1300000
0.
0?
#1350000
1.
1?
#1351000
b0 c
b1 `
b1 A
b111 b
b111 J
1~
1]
1p
1$
b0 q
b0 )
b0 M
b0 t
b0 ,
b0 S
0r
0*
0s
0+
b1 a
b1 I
b1 j
b1 _
b1 @
b1 e
0<
0P
#1400000
0.
0?
#1450000
1.
1?
#1451000
0~
0]
b0 |
b0 }
0{
0[
0z
0Z
0p
0$
b1 b
b1 J
06
0K
#1500000
0.
0?
#1550000
1.
1?
#1551000
0W
b10 %"
0&"
b10 )"
b1010000000000001 ("
b1000000001100 i
b1010000000000001 $"
b1000000001000 g
b1010000000000001 ""
b10 a
b10 I
b10 j
b10 _
b10 @
b10 e
b1001001000000 8
b1001001000000 X
b1001001000000 l
19
1Y
b10100000000000010001000000001100 3
b10100000000000010001000000001100 F
b10100000000000010001000000001100 h
b10100000000000010001000000001100 #"
15
1H
b10100000000000010001000000001000 /
b10100000000000010001000000001000 B
b10100000000000010001000000001000 f
b10100000000000010001000000001000 !"
12
1E
b1001001000000 -"
b10100000000000010001000000001100 ,"
b1001000111100 *"
b10100000000000010001000000001000 +"
#1600000
0.
0?
#1650000
1.
1?
#1651000
b11 _
b11 @
b11 e
b11 a
b11 I
b11 j
0u
0-
1s
1+
1m
1!
b10 `
b10 A
b10 b
b10 J
b1000000001000 q
b1000000001000 )
b1000000001000 M
#1700000
0.
0?
#1750000
1.
1?
#1751000
b1 c
b11 `
b11 A
b11 b
b11 J
0m
0!
1r
1*
b0 %"
b0 )"
b0 ("
b0 i
b0 $"
b0 g
b0 ""
b100 a
b100 I
b100 j
b1 _
b1 @
b1 e
b1001000111100 ;
b1001000111100 O
b1001000111100 k
1<
1P
17
1U
16
1K
b0 8
b0 X
b0 l
09
0Y
b0 3
b0 F
b0 h
b0 #"
05
0H
b0 /
b0 B
b0 f
b0 !"
02
0E
#1800000
0.
0?
#1850000
1.
1?
#1851000
b0 q
b0 )
b0 M
0r
0*
0s
0+
1~
1]
1x
1'
b1 `
b1 A
b100 b
b100 J
b0 c
b1001000111100 v
b1001000111100 %
b1001000111100 T
b1 a
b1 I
b1 j
b1 _
b1 @
b1 e
b0 ;
b0 O
b0 k
0<
0P
#1900000
0.
0?
#1950000
1.
1?
#1951000
b1 b
b1 J
0~
0]
b0 v
b0 %
b0 T
0x
0'
06
0K
07
0U
#2000000
0.
0?
#2050000
1.
1?
#2051000
0W
b10 %"
0&"
b10 )"
b1010000000000001 ("
b1000000010000 g
b1010000000000001 ""
b10 a
b10 I
b10 j
b10 _
b10 @
b10 e
b10100000000000010001000000010000 /
b10100000000000010001000000010000 B
b10100000000000010001000000010000 f
b10100000000000010001000000010000 !"
12
1E
b1001001000100 2"
b10100000000000010001000000010000 3"
#2100000
0.
0?
#2150000
1.
1?
#2151000
b11 _
b11 @
b11 e
b11 a
b11 I
b11 j
b10 `
b10 A
b10 b
b10 J
1m
1!
1s
1+
b1000000010000 q
b1000000010000 )
b1000000010000 M
#2200000
0.
0?
#2250000
1.
1?
#2251000
1r
1*
0m
0!
b11 `
b11 A
b11 b
b11 J
b1 c
b0 %"
b0 )"
b0 ("
b0 g
b0 ""
b11 a
b11 I
b11 j
b11 _
b11 @
b11 e
17
1U
b0 /
b0 B
b0 f
b0 !"
02
0E
#2300000
0.
0?
#2350000
1.
1?
#2351000
b10 c
#2400000
0.
0?
#2450000
1.
1?
#2451000
b11 c
#2500000
0.
0?
#2550000
1.
1?
#2551000
b100 c
#2600000
0.
0?
#2650000
1.
1?
#2651000
b101 c
#2700000
0.
0?
#2750000
1.
1?
#2751000
b110 c
b100 a
b100 I
b100 j
b1 _
b1 @
b1 e
b1001001000100 ;
b1001001000100 O
b1001001000100 k
1<
1P
#2800000
0.
0?
#2850000
1.
1?
#2851000
b0 q
b0 )
b0 M
0r
0*
0s
0+
1~
1]
1x
1'
b1 `
b1 A
b100 b
b100 J
b0 c
b1001001000100 v
b1001001000100 %
b1001001000100 T
b1 a
b1 I
b1 j
b1 _
b1 @
b1 e
b0 ;
b0 O
b0 k
0<
0P
#2900000
0.
0?
#2950000
1.
1?
#2951000
b1 b
b1 J
0~
0]
b0 v
b0 %
b0 T
0x
0'
07
0U
#3000000
0.
0?
#3050000
1.
1?
#3051000
00
0C
