Windows/Example/4_5_RTL/testbench/TP_002_tb.vcd
$date
	Mon Oct 05 11:05:27 2020
$end
$version
	Icarus Verilog
$end
$timescale
	1ps
$end
$scope module timer_tb $end
$var wire 8 ! rdata [7:0] $end
$var wire 1 " tout_10 $end
$var wire 1 # tout_100 $end
$var reg 2 $ addr [1:0] $end
$var reg 1 % clk $end
$var integer 32 & i [31:0] $end
$var integer 32 ' j [31:0] $end
$var reg 1 ( read $end
$var reg 1 ) rst_n $end
$var reg 1 * sel $end
$var reg 8 + wdata [7:0] $end
$var reg 1 , write $end
$var real 1 - edge10 $end
$var real 1 . edge100 $end
$scope module tb $end
$var wire 4 / CMP1_flagA [3:0] $end
$var wire 4 0 CMP1_flagB [3:0] $end
$var wire 4 1 CMP2_flagA [3:0] $end
$var wire 4 2 CMP2_flagB [3:0] $end
$var wire 1 3 RE1 $end
$var wire 1 4 RE2 $end
$var wire 1 5 RE3 $end
$var wire 1 6 WE1 $end
$var wire 1 7 WE2 $end
$var wire 1 8 WE3 $end
$var wire 2 9 addr [1:0] $end
$var wire 1 : clk $end
$var wire 1 ; clk_out $end
$var wire 1 < clr_cnt2 $end
$var wire 1 = clr_comb $end
$var wire 1 > clrcnt_flag $end
$var wire 1 ? comb $end
$var wire 4 @ comp_out [3:0] $end
$var wire 1 A flag1 $end
$var wire 1 B flag2 $end
$var wire 8 C rdata [7:0] $end
$var wire 1 D read $end
$var wire 1 E rst_n $end
$var wire 1 F sel $end
$var wire 1 G start_flag $end
$var wire 8 H startstop [7:0] $end
$var wire 8 I timer1 [7:0] $end
$var wire 8 J timer2 [7:0] $end
$var wire 8 K wdata [7:0] $end
$var wire 1 L write $end
$var reg 1 M clk2 $end
$var reg 4 N cnt1 [3:0] $end
$var reg 4 O cnt2 [3:0] $end
$var reg 1 P cnt_adj $end
$var reg 1 Q sel1 $end
$var reg 1 R sel_out $end
$var reg 1 S tout_10 $end
$var reg 1 T tout_100 $end
$upscope $end
$scope task READ_DATA $end
$var reg 2 U R_ADDR [1:0] $end
$upscope $end
$scope task WRITE_DATA $end
$var reg 2 V W_ADDR [1:0] $end
$var reg 8 W W_DATA [7:0] $end
$upscope $end
$upscope $end
$enddefinitions $end
#0
$dumpvars
bx W
bx V
bx U
xT
xS
xR
xQ
xP
bx O
bx N
xM
0L
b0 K
bx J
bx I
bx H
xG
0F
1E
0D
b0 C
xB
xA
bx @
x?
x>
x=
x<
x;
0:
bx 9
08
07
06
05
04
03
bx 2
bx 1
bx 0
bx /
r0 .
r0 -
0,
b0 +
0*
1)
0(
b0 '
bx &
0%
bx $
x#
x"
b0 !
$end
#1000
0Q
#500000
1%
1:
#1000000
0%
0:
#1500000
1%
1:
#2000000
0%
0:
#2500000
1%
1:
#3000000
0%
0:
#3500000
1%
1:
#4000000
0%
0:
#4500000
1%
1:
#5000000
0%
0:
#5500000
1%
1:
#6000000
0%
0:
#6500000
1%
1:
#7000000
0%
0:
#7500000
1%
1:
#8000000
0%
0:
#8500000
1%
1:
#9000000
0%
0:
#9500000
1%
1:
#10000000
0%
0:
#10500000
1%
1:
#11000000
0%
0:
#11500000
1%
1:
#12000000
0%
0:
#12500000
1%
1:
#13000000
0%
0:
#13500000
1%
1:
#14000000
0%
0:
#14500000
1%
1:
#15000000
0%
0:
#15500000
1%
1:
#16000000
0%
0:
#16500000
1%
1:
#17000000
0%
0:
#17500000
1%
1:
#18000000
0%
0:
#18500000
1%
1:
#19000000
0%
0:
#19500000
1%
1:
#20000000
0%
0:
b10000000 +
b10000000 K
b0 $
b0 9
b10000000 W
b0 V
#20500000
1%
1:
#21000000
1<
1=
1>
0G
b10000000 H
16
0%
0:
1,
1L
#21500000
1%
1:
#21501000
b0 O
b0 N
0P
#22000000
06
0%
0:
0,
0L
#22001000
b1 W
b1 +
b1 K
#22500000
1%
1:
#23000000
0%
0:
#23001000
x<
0=
0>
1G
b1 H
16
1,
1L
#23500000
1%
1:
#24000000
0%
0:
#24001000
06
0,
0L
#24002000
b1 $
b1 9
b1001001 W
b1 V
b1001001 +
b1001001 K
#24500000
1%
1:
#25000000
0%
0:
#25002000
bx0x @
b100 0
b1001 /
b1001001 I
17
1,
1L
#25500000
1%
1:
#26000000
0%
0:
#26002000
07
b0 $
b0 9
0,
0L
#26003000
b10 $
b10 9
b1001 W
b10 V
b1001 +
b1001 K
#26500000
1%
1:
#27000000
0%
0:
#27003000
0<
0?
0B
b0 2
b1001 1
b1001 J
18
1,
1L
#27500000
1%
1:
#28000000
0%
0:
#28003000
08
b0 $
b0 9
0,
0L
#28004000
b0 U
b0 +
b0 K
#28500000
1%
1:
#29000000
0%
0:
#29004000
b1 !
b1 C
13
1(
1D
#29500000
1%
1:
#30000000
0%
0:
#30005000
b0 !
b0 C
03
b1 $
b1 9
b1 U
0(
0D
#30500000
1%
1:
#31000000
0%
0:
#31005000
b1001001 !
b1001001 C
14
1(
1D
#31500000
1%
1:
#32000000
0%
0:
#32006000
b0 !
b0 C
04
b10 U
b10 $
b10 9
0(
0D
#32500000
1%
1:
#33000000
0%
0:
#33006000
b1001 !
b1001 C
15
1(
1D
#33500000
1%
1:
#34000000
0%
0:
#34007000
b0 !
b0 C
05
b0 $
b0 9
0(
0D
